<svg width="907" height="530" viewBox="0 0 907 530" fill="none" xmlns="http://www.w3.org/2000/svg">
<g clip-path="url(#clip0)">
<rect width="907" height="530" fill="white"/>
<path d="M75.2406 490.297H71.6605V494.064H70.5355V485.533H75.8207V486.459H71.6605V489.377H75.2406V490.297ZM79.5003 494.181C78.641 494.181 77.9418 493.9 77.4027 493.338C76.8636 492.771 76.5941 492.015 76.5941 491.07V490.871C76.5941 490.242 76.7132 489.681 76.9515 489.189C77.1937 488.693 77.5296 488.306 77.9593 488.029C78.3929 487.748 78.8617 487.607 79.3656 487.607C80.1898 487.607 80.8304 487.879 81.2875 488.422C81.7445 488.965 81.973 489.742 81.973 490.754V491.205H77.6781C77.6937 491.83 77.8753 492.336 78.223 492.723C78.5746 493.105 79.0199 493.297 79.5589 493.297C79.9418 493.297 80.266 493.219 80.5316 493.062C80.7972 492.906 81.0296 492.699 81.2289 492.441L81.891 492.957C81.3597 493.773 80.5628 494.181 79.5003 494.181ZM79.3656 488.498C78.9281 488.498 78.5609 488.658 78.264 488.978C77.9671 489.295 77.7835 489.74 77.7132 490.314H80.889V490.232C80.8578 489.681 80.7093 489.256 80.4437 488.955C80.1781 488.65 79.8187 488.498 79.3656 488.498ZM88.6 490.965C88.6 491.933 88.3773 492.713 87.932 493.303C87.4867 493.889 86.889 494.181 86.139 494.181C85.3382 494.181 84.7191 493.898 84.2816 493.332L84.2289 494.064H83.2328V485.064H84.3168V488.422C84.7543 487.879 85.3578 487.607 86.1273 487.607C86.8968 487.607 87.5003 487.898 87.9378 488.48C88.3793 489.062 88.6 489.859 88.6 490.871V490.965ZM87.516 490.842C87.516 490.103 87.3734 489.533 87.0882 489.131C86.8031 488.728 86.3929 488.527 85.8578 488.527C85.1429 488.527 84.6293 488.859 84.3168 489.523V492.265C84.6488 492.93 85.1664 493.262 85.8695 493.262C86.389 493.262 86.7933 493.06 87.0824 492.658C87.3714 492.256 87.516 491.65 87.516 490.842ZM93.6097 485.715L93.4867 487.871H92.7308L92.7367 485.064H93.6097V485.715ZM98.4964 494.064H97.4066V486.84L95.221 487.642V486.658L98.3265 485.492H98.4964V494.064ZM105.926 485.527V486.447H105.727C104.883 486.463 104.211 486.713 103.711 487.197C103.211 487.681 102.922 488.363 102.844 489.242C103.293 488.726 103.907 488.469 104.684 488.469C105.426 488.469 106.018 488.73 106.459 489.254C106.905 489.777 107.127 490.453 107.127 491.281C107.127 492.16 106.887 492.863 106.407 493.39C105.93 493.918 105.289 494.181 104.485 494.181C103.668 494.181 103.006 493.869 102.498 493.244C101.991 492.615 101.737 491.806 101.737 490.818V490.402C101.737 488.832 102.071 487.633 102.739 486.805C103.41 485.973 104.409 485.547 105.733 485.527H105.926ZM104.502 489.371C104.131 489.371 103.789 489.482 103.477 489.705C103.164 489.928 102.948 490.207 102.827 490.543V490.941C102.827 491.644 102.985 492.211 103.301 492.64C103.618 493.07 104.012 493.285 104.485 493.285C104.973 493.285 105.356 493.105 105.633 492.746C105.914 492.387 106.055 491.916 106.055 491.334C106.055 490.748 105.912 490.275 105.627 489.916C105.346 489.553 104.971 489.371 104.502 489.371Z" fill="#373D3F"/>
<path d="M177.193 485.533L179.982 492.494L182.771 485.533H184.23V494.064H183.105V490.742L183.21 487.156L180.409 494.064H179.548L176.753 487.174L176.864 490.742V494.064H175.739V485.533H177.193ZM189.96 494.064C189.898 493.939 189.847 493.717 189.808 493.396C189.304 493.92 188.702 494.181 188.003 494.181C187.378 494.181 186.864 494.006 186.462 493.654C186.064 493.299 185.864 492.849 185.864 492.306C185.864 491.646 186.114 491.135 186.614 490.771C187.118 490.404 187.825 490.221 188.736 490.221H189.79V489.723C189.79 489.344 189.677 489.043 189.45 488.82C189.224 488.594 188.89 488.48 188.448 488.48C188.062 488.48 187.738 488.578 187.476 488.773C187.214 488.969 187.083 489.205 187.083 489.482H185.993C185.993 489.166 186.105 488.861 186.327 488.568C186.554 488.271 186.859 488.037 187.241 487.865C187.628 487.693 188.052 487.607 188.513 487.607C189.243 487.607 189.816 487.791 190.23 488.158C190.644 488.521 190.859 489.023 190.874 489.664V492.582C190.874 493.164 190.948 493.627 191.097 493.971V494.064H189.96ZM188.161 493.238C188.501 493.238 188.823 493.15 189.128 492.974C189.433 492.799 189.654 492.57 189.79 492.289V490.988H188.941C187.613 490.988 186.948 491.377 186.948 492.154C186.948 492.494 187.062 492.76 187.288 492.951C187.515 493.142 187.806 493.238 188.161 493.238ZM194.554 492.476L196.03 487.724H197.191L194.642 495.043C194.247 496.098 193.62 496.625 192.761 496.625L192.556 496.607L192.152 496.531V495.652L192.445 495.676C192.812 495.676 193.097 495.601 193.3 495.453C193.507 495.305 193.677 495.033 193.81 494.639L194.05 493.994L191.788 487.724H192.972L194.554 492.476ZM201.802 485.715L201.679 487.871H200.923L200.929 485.064H201.802V485.715ZM206.689 494.064H205.599V486.84L203.413 487.642V486.658L206.519 485.492H206.689V494.064ZM214.118 485.527V486.447H213.919C213.075 486.463 212.404 486.713 211.904 487.197C211.404 487.681 211.114 488.363 211.036 489.242C211.486 488.726 212.099 488.469 212.876 488.469C213.618 488.469 214.21 488.73 214.652 489.254C215.097 489.777 215.32 490.453 215.32 491.281C215.32 492.16 215.079 492.863 214.599 493.39C214.122 493.918 213.482 494.181 212.677 494.181C211.861 494.181 211.198 493.869 210.691 493.244C210.183 492.615 209.929 491.806 209.929 490.818V490.402C209.929 488.832 210.263 487.633 210.931 486.805C211.603 485.973 212.601 485.547 213.925 485.527H214.118ZM212.695 489.371C212.323 489.371 211.982 489.482 211.669 489.705C211.357 489.928 211.14 490.207 211.019 490.543V490.941C211.019 491.644 211.177 492.211 211.493 492.64C211.81 493.07 212.204 493.285 212.677 493.285C213.165 493.285 213.548 493.105 213.825 492.746C214.107 492.387 214.247 491.916 214.247 491.334C214.247 490.748 214.105 490.275 213.82 489.916C213.538 489.553 213.163 489.371 212.695 489.371Z" fill="#373D3F"/>
<path d="M290.258 491.838H286.684L285.881 494.064H284.721L287.979 485.533H288.963L292.227 494.064H291.072L290.258 491.838ZM287.023 490.912H289.924L288.471 486.922L287.023 490.912ZM297.049 493.437C296.627 493.933 296.008 494.181 295.191 494.181C294.516 494.181 294 493.986 293.645 493.596C293.293 493.201 293.115 492.619 293.111 491.849V487.724H294.195V491.82C294.195 492.781 294.586 493.262 295.367 493.262C296.195 493.262 296.746 492.953 297.02 492.336V487.724H298.104V494.064H297.072L297.049 493.437ZM299.498 490.842C299.498 489.853 299.727 489.068 300.184 488.486C300.641 487.9 301.246 487.607 302 487.607C302.773 487.607 303.377 487.881 303.811 488.428L303.863 487.724H304.854V493.912C304.854 494.732 304.609 495.379 304.121 495.851C303.637 496.324 302.984 496.56 302.164 496.56C301.707 496.56 301.26 496.463 300.822 496.267C300.385 496.072 300.051 495.805 299.82 495.465L300.383 494.814C300.848 495.389 301.416 495.676 302.088 495.676C302.615 495.676 303.025 495.527 303.318 495.23C303.615 494.933 303.764 494.515 303.764 493.976V493.431C303.33 493.931 302.738 494.181 301.988 494.181C301.246 494.181 300.645 493.883 300.184 493.285C299.727 492.687 299.498 491.873 299.498 490.842ZM300.588 490.965C300.588 491.68 300.734 492.242 301.027 492.652C301.32 493.058 301.731 493.262 302.258 493.262C302.941 493.262 303.443 492.951 303.764 492.33V489.435C303.432 488.83 302.934 488.527 302.27 488.527C301.742 488.527 301.33 488.732 301.033 489.142C300.736 489.553 300.588 490.16 300.588 490.965ZM310.133 485.715L310.01 487.871H309.254L309.26 485.064H310.133V485.715ZM315.02 494.064H313.93V486.84L311.744 487.642V486.658L314.85 485.492H315.02V494.064ZM322.449 485.527V486.447H322.25C321.406 486.463 320.734 486.713 320.234 487.197C319.734 487.681 319.445 488.363 319.367 489.242C319.816 488.726 320.43 488.469 321.207 488.469C321.949 488.469 322.541 488.73 322.982 489.254C323.428 489.777 323.65 490.453 323.65 491.281C323.65 492.16 323.41 492.863 322.93 493.39C322.453 493.918 321.813 494.181 321.008 494.181C320.191 494.181 319.529 493.869 319.022 493.244C318.514 492.615 318.26 491.806 318.26 490.818V490.402C318.26 488.832 318.594 487.633 319.262 486.805C319.934 485.973 320.932 485.547 322.256 485.527H322.449ZM321.025 489.371C320.654 489.371 320.313 489.482 320 489.705C319.688 489.928 319.471 490.207 319.35 490.543V490.941C319.35 491.644 319.508 492.211 319.824 492.64C320.141 493.07 320.535 493.285 321.008 493.285C321.496 493.285 321.879 493.105 322.156 492.746C322.438 492.387 322.578 491.916 322.578 491.334C322.578 490.748 322.436 490.275 322.15 489.916C321.869 489.553 321.494 489.371 321.025 489.371Z" fill="#373D3F"/>
<path d="M401.173 494.064H400.042L395.747 487.49V494.064H394.616V485.533H395.747L400.054 492.137V485.533H401.173V494.064ZM402.714 490.836C402.714 490.215 402.835 489.656 403.077 489.16C403.323 488.664 403.663 488.281 404.097 488.012C404.534 487.742 405.032 487.607 405.591 487.607C406.454 487.607 407.151 487.906 407.682 488.504C408.218 489.101 408.485 489.896 408.485 490.889V490.965C408.485 491.582 408.366 492.137 408.128 492.629C407.893 493.117 407.556 493.498 407.114 493.771C406.677 494.045 406.173 494.181 405.602 494.181C404.743 494.181 404.046 493.883 403.511 493.285C402.979 492.687 402.714 491.896 402.714 490.912V490.836ZM403.804 490.965C403.804 491.668 403.966 492.232 404.29 492.658C404.618 493.084 405.056 493.297 405.602 493.297C406.153 493.297 406.591 493.082 406.915 492.652C407.239 492.219 407.401 491.613 407.401 490.836C407.401 490.14 407.235 489.578 406.903 489.148C406.575 488.715 406.138 488.498 405.591 488.498C405.056 488.498 404.624 488.711 404.296 489.137C403.968 489.562 403.804 490.172 403.804 490.965ZM411.843 492.594L413.413 487.724H414.52L412.247 494.064H411.421L409.124 487.724H410.231L411.843 492.594ZM419.202 485.715L419.079 487.871H418.323L418.329 485.064H419.202V485.715ZM424.089 494.064H422.999V486.84L420.813 487.642V486.658L423.919 485.492H424.089V494.064ZM431.518 485.527V486.447H431.319C430.475 486.463 429.804 486.713 429.304 487.197C428.804 487.681 428.515 488.363 428.436 489.242C428.886 488.726 429.499 488.469 430.276 488.469C431.018 488.469 431.61 488.73 432.052 489.254C432.497 489.777 432.72 490.453 432.72 491.281C432.72 492.16 432.479 492.863 431.999 493.39C431.522 493.918 430.882 494.181 430.077 494.181C429.261 494.181 428.598 493.869 428.091 493.244C427.583 492.615 427.329 491.806 427.329 490.818V490.402C427.329 488.832 427.663 487.633 428.331 486.805C429.003 485.973 430.001 485.547 431.325 485.527H431.518ZM430.095 489.371C429.723 489.371 429.382 489.482 429.069 489.705C428.757 489.928 428.54 490.207 428.419 490.543V490.941C428.419 491.644 428.577 492.211 428.893 492.64C429.21 493.07 429.604 493.285 430.077 493.285C430.565 493.285 430.948 493.105 431.225 492.746C431.507 492.387 431.647 491.916 431.647 491.334C431.647 490.748 431.505 490.275 431.22 489.916C430.938 489.553 430.563 489.371 430.095 489.371Z" fill="#373D3F"/>
<path d="M509.146 490.297H505.566V494.064H504.441V485.533H509.726V486.459H505.566V489.377H509.146V490.297ZM513.406 494.181C512.547 494.181 511.847 493.9 511.308 493.338C510.769 492.771 510.5 492.015 510.5 491.07V490.871C510.5 490.242 510.619 489.681 510.857 489.189C511.099 488.693 511.435 488.306 511.865 488.029C512.298 487.748 512.767 487.607 513.271 487.607C514.095 487.607 514.736 487.879 515.193 488.422C515.65 488.965 515.879 489.742 515.879 490.754V491.205H511.584C511.599 491.83 511.781 492.336 512.129 492.723C512.48 493.105 512.925 493.297 513.465 493.297C513.847 493.297 514.172 493.219 514.437 493.062C514.703 492.906 514.935 492.699 515.134 492.441L515.797 492.957C515.265 493.773 514.468 494.181 513.406 494.181ZM513.271 488.498C512.834 488.498 512.466 488.658 512.17 488.978C511.873 489.295 511.689 489.74 511.619 490.314H514.795V490.232C514.763 489.681 514.615 489.256 514.349 488.955C514.084 488.65 513.724 488.498 513.271 488.498ZM522.506 490.965C522.506 491.933 522.283 492.713 521.838 493.303C521.392 493.889 520.795 494.181 520.045 494.181C519.244 494.181 518.625 493.898 518.187 493.332L518.134 494.064H517.138V485.064H518.222V488.422C518.66 487.879 519.263 487.607 520.033 487.607C520.802 487.607 521.406 487.898 521.843 488.48C522.285 489.062 522.506 489.859 522.506 490.871V490.965ZM521.422 490.842C521.422 490.103 521.279 489.533 520.994 489.131C520.709 488.728 520.298 488.527 519.763 488.527C519.048 488.527 518.535 488.859 518.222 489.523V492.265C518.554 492.93 519.072 493.262 519.775 493.262C520.295 493.262 520.699 493.06 520.988 492.658C521.277 492.256 521.422 491.65 521.422 490.842ZM527.515 485.715L527.392 487.871H526.636L526.642 485.064H527.515V485.715ZM532.402 494.064H531.312V486.84L529.127 487.642V486.658L532.232 485.492H532.402V494.064ZM541.086 486.142L537.552 494.064H536.416L539.937 486.424H535.32V485.533H541.086V486.142Z" fill="#373D3F"/>
<path d="M609.913 485.533L612.702 492.494L615.491 485.533H616.95V494.064H615.825V490.742L615.93 487.156L613.129 494.064H612.268L609.473 487.174L609.584 490.742V494.064H608.459V485.533H609.913ZM622.68 494.064C622.618 493.939 622.567 493.717 622.528 493.396C622.024 493.92 621.422 494.181 620.723 494.181C620.098 494.181 619.584 494.006 619.182 493.654C618.784 493.299 618.584 492.849 618.584 492.306C618.584 491.646 618.834 491.135 619.334 490.771C619.838 490.404 620.545 490.221 621.456 490.221H622.51V489.723C622.51 489.344 622.397 489.043 622.17 488.82C621.944 488.594 621.61 488.48 621.168 488.48C620.782 488.48 620.458 488.578 620.196 488.773C619.934 488.969 619.803 489.205 619.803 489.482H618.713C618.713 489.166 618.825 488.861 619.047 488.568C619.274 488.271 619.579 488.037 619.961 487.865C620.348 487.693 620.772 487.607 621.233 487.607C621.963 487.607 622.536 487.791 622.95 488.158C623.364 488.521 623.579 489.023 623.594 489.664V492.582C623.594 493.164 623.668 493.627 623.817 493.971V494.064H622.68ZM620.881 493.238C621.221 493.238 621.543 493.15 621.848 492.974C622.153 492.799 622.374 492.57 622.51 492.289V490.988H621.661C620.333 490.988 619.668 491.377 619.668 492.154C619.668 492.494 619.782 492.76 620.008 492.951C620.235 493.142 620.526 493.238 620.881 493.238ZM627.274 492.476L628.75 487.724H629.911L627.362 495.043C626.967 496.098 626.34 496.625 625.481 496.625L625.276 496.607L624.872 496.531V495.652L625.165 495.676C625.532 495.676 625.817 495.601 626.02 495.453C626.227 495.305 626.397 495.033 626.53 494.639L626.77 493.994L624.508 487.724H625.692L627.274 492.476ZM634.522 485.715L634.399 487.871H633.643L633.649 485.064H634.522V485.715ZM639.409 494.064H638.319V486.84L636.133 487.642V486.658L639.239 485.492H639.409V494.064ZM648.092 486.142L644.559 494.064H643.422L646.944 486.424H642.327V485.533H648.092V486.142Z" fill="#373D3F"/>
<path d="M722.978 491.838H719.404L718.601 494.064H717.441L720.699 485.533H721.683L724.947 494.064H723.792L722.978 491.838ZM719.744 490.912H722.644L721.191 486.922L719.744 490.912ZM729.769 493.437C729.347 493.933 728.728 494.181 727.911 494.181C727.236 494.181 726.72 493.986 726.365 493.596C726.013 493.201 725.835 492.619 725.831 491.849V487.724H726.915V491.82C726.915 492.781 727.306 493.262 728.087 493.262C728.915 493.262 729.466 492.953 729.74 492.336V487.724H730.824V494.064H729.792L729.769 493.437ZM732.218 490.842C732.218 489.853 732.447 489.068 732.904 488.486C733.361 487.9 733.966 487.607 734.72 487.607C735.494 487.607 736.097 487.881 736.531 488.428L736.583 487.724H737.574V493.912C737.574 494.732 737.329 495.379 736.841 495.851C736.357 496.324 735.704 496.56 734.884 496.56C734.427 496.56 733.98 496.463 733.542 496.267C733.105 496.072 732.771 495.805 732.54 495.465L733.103 494.814C733.568 495.389 734.136 495.676 734.808 495.676C735.335 495.676 735.745 495.527 736.038 495.23C736.335 494.933 736.484 494.515 736.484 493.976V493.431C736.05 493.931 735.458 494.181 734.708 494.181C733.966 494.181 733.365 493.883 732.904 493.285C732.447 492.687 732.218 491.873 732.218 490.842ZM733.308 490.965C733.308 491.68 733.454 492.242 733.747 492.652C734.04 493.058 734.451 493.262 734.978 493.262C735.661 493.262 736.163 492.951 736.484 492.33V489.435C736.152 488.83 735.654 488.527 734.99 488.527C734.462 488.527 734.05 488.732 733.753 489.142C733.456 489.553 733.308 490.16 733.308 490.965ZM742.853 485.715L742.73 487.871H741.974L741.98 485.064H742.853V485.715ZM747.74 494.064H746.65V486.84L744.464 487.642V486.658L747.57 485.492H747.74V494.064ZM756.423 486.142L752.89 494.064H751.753L755.275 486.424H750.658V485.533H756.423V486.142Z" fill="#373D3F"/>
<path d="M833.893 494.064H832.762L828.467 487.49V494.064H827.336V485.533H828.467L832.774 492.137V485.533H833.893V494.064ZM835.434 490.836C835.434 490.215 835.555 489.656 835.797 489.16C836.043 488.664 836.383 488.281 836.817 488.012C837.254 487.742 837.752 487.607 838.311 487.607C839.174 487.607 839.871 487.906 840.403 488.504C840.938 489.101 841.205 489.896 841.205 490.889V490.965C841.205 491.582 841.086 492.137 840.848 492.629C840.614 493.117 840.276 493.498 839.834 493.771C839.397 494.045 838.893 494.181 838.323 494.181C837.463 494.181 836.766 493.883 836.231 493.285C835.699 492.687 835.434 491.896 835.434 490.912V490.836ZM836.524 490.965C836.524 491.668 836.686 492.232 837.01 492.658C837.338 493.084 837.776 493.297 838.323 493.297C838.873 493.297 839.311 493.082 839.635 492.652C839.959 492.219 840.121 491.613 840.121 490.836C840.121 490.14 839.955 489.578 839.623 489.148C839.295 488.715 838.858 488.498 838.311 488.498C837.776 488.498 837.344 488.711 837.016 489.137C836.688 489.562 836.524 490.172 836.524 490.965ZM844.563 492.594L846.133 487.724H847.24L844.967 494.064H844.141L841.844 487.724H842.951L844.563 492.594ZM851.922 485.715L851.799 487.871H851.043L851.049 485.064H851.922V485.715ZM856.809 494.064H855.719V486.84L853.533 487.642V486.658L856.639 485.492H856.809V494.064ZM865.492 486.142L861.959 494.064H860.823L864.344 486.424H859.727V485.533H865.492V486.142Z" fill="#373D3F"/>
<path d="M76.768 466.327H893.046" stroke="#78909C"/>
<path d="M88.6234 466.327V474.696" stroke="#78909C"/>
<path d="M195.321 466.327V474.696" stroke="#78909C"/>
<path d="M304.391 466.327V474.696" stroke="#78909C"/>
<path d="M413.46 466.327V474.696" stroke="#78909C"/>
<path d="M522.529 466.327V474.696" stroke="#78909C"/>
<path d="M628.042 466.327V474.696" stroke="#78909C"/>
<path d="M737.111 466.327V474.696" stroke="#78909C"/>
<path d="M846.18 466.327V474.696" stroke="#78909C"/>
<path d="M76.768 79.5H893.046" stroke="#E0E0E0"/>
<path d="M76.768 143.739H893.046" stroke="#E0E0E0"/>
<path d="M76.768 207.978H893.046" stroke="#E0E0E0"/>
<path d="M76.768 272.216H893.046" stroke="#E0E0E0"/>
<path d="M76.768 336.455H893.046" stroke="#E0E0E0"/>
<path d="M76.768 400.694H893.046" stroke="#E0E0E0"/>
<path d="M76.768 464.933H893.046" stroke="#E0E0E0"/>
<path d="M76.768 464.933H893.046" stroke="black"/>
<path d="M76.768 80.8947V464.933" stroke="black"/>
<path d="M76.3585 339.667H88.2625V287.42V339.667H100.167V379.709H88.2625V388.06V379.709H76.3585V338.97" fill="#00B746"/>
<path d="M76.3585 339.667H88.2625V287.42V339.667H100.167V379.709H88.2625V388.06V379.709H76.3585V338.97" stroke="#333333"/>
<path d="M110.739 343.736H122.643V315.256V343.736H134.547V358.939H122.643V393.199V358.939H110.739V343.038" fill="#EF403C"/>
<path d="M110.739 343.736H122.643V315.256V343.736H134.547V358.939H122.643V393.199V358.939H110.739V343.038" stroke="#333333"/>
<path d="M147.491 358.725H159.395V341.166V358.725H171.299V369.003H159.395V389.131V369.003H147.491V358.027" fill="#EF403C"/>
<path d="M147.491 358.725H159.395V341.166V358.725H171.299V369.003H159.395V389.131V369.003H147.491V358.027" stroke="#333333"/>
<path d="M183.057 367.718H194.961V362.365V367.718H206.865V438.381H194.961V467.502V438.381H183.057V367.021" fill="#EF403C"/>
<path d="M183.057 367.718H194.961V362.365V367.718H206.865V438.381H194.961V467.502V438.381H183.057V367.021" stroke="#333333"/>
<path d="M219.808 362.579H231.712V360.866V362.579H243.616V441.378H231.712V471.357V441.378H219.808V361.882" fill="#00B746"/>
<path d="M219.808 362.579H231.712V360.866V362.579H243.616V441.378H231.712V471.357V441.378H219.808V361.882" stroke="#333333"/>
<path d="M255.374 361.508H267.278V347.59V361.508H279.182V373.071H267.278V415.255V373.071H255.374V360.811" fill="#EF403C"/>
<path d="M255.374 361.508H267.278V347.59V361.508H279.182V373.071H267.278V415.255V373.071H255.374V360.811" stroke="#333333"/>
<path d="M292.126 366.862H304.03V326.177V366.862H315.934V374.998H304.03V386.99V374.998H292.126V366.164" fill="#00B746"/>
<path d="M292.126 366.862H304.03V326.177V366.862H315.934V374.998H304.03V386.99V374.998H292.126V366.164" stroke="#333333"/>
<path d="M328.877 271.574H340.781V264.722V271.574H352.685V363.007H340.781V376.069V363.007H328.877V270.877" fill="#00B746"/>
<path d="M328.877 271.574H340.781V264.722V271.574H352.685V363.007H340.781V376.069V363.007H328.877V270.877" stroke="#333333"/>
<path d="M364.443 271.36H376.347V247.591V271.36H388.251V289.561H376.347V446.089V289.561H364.443V270.662" fill="#EF403C"/>
<path d="M364.443 271.36H376.347V247.591V271.36H388.251V289.561H376.347V446.089V289.561H364.443V270.662" stroke="#333333"/>
<path d="M401.195 233.887H413.099V232.602V233.887H425.003V291.702H413.099V304.764V291.702H401.195V233.19" fill="#00B746"/>
<path d="M401.195 233.887H413.099V232.602V233.887H425.003V291.702H413.099V304.764V291.702H401.195V233.19" stroke="#333333"/>
<path d="M436.761 228.32H448.665V215.472V228.32H460.569V234.101H448.665V245.878V234.101H436.761V227.622" fill="#00B746"/>
<path d="M436.761 228.32H448.665V215.472V228.32H460.569V234.101H448.665V245.878V234.101H436.761V227.622" stroke="#333333"/>
<path d="M473.513 200.697H485.417V184.209V200.697H497.321V221.468H485.417V221.896V221.468H473.513V200" fill="#00B746"/>
<path d="M473.513 200.697H485.417V184.209V200.697H497.321V221.468H485.417V221.896V221.468H473.513V200" stroke="#333333"/>
<path d="M510.264 199.412H522.168V196.843V199.412H534.072V273.715H522.168V278.426V273.715H510.264V198.715" fill="#EF403C"/>
<path d="M510.264 199.412H522.168V196.843V199.412H534.072V273.715H522.168V278.426V273.715H510.264V198.715" stroke="#333333"/>
<path d="M543.459 271.788H555.363V214.187V271.788H567.267V276.071H555.363V292.773V276.071H543.459V271.091" fill="#EF403C"/>
<path d="M543.459 271.788H555.363V214.187V271.788H567.267V276.071H555.363V292.773V276.071H543.459V271.091" stroke="#333333"/>
<path d="M580.211 222.967H592.115V216.114V222.967H604.019V272.859H592.115V319.967V272.859H580.211V222.269" fill="#00B746"/>
<path d="M580.211 222.967H592.115V216.114V222.967H604.019V272.859H592.115V319.967V272.859H580.211V222.269" stroke="#333333"/>
<path d="M615.777 211.19H627.681V158.942V211.19H639.585V227.035H627.681V227.249V227.035H615.777V210.492" fill="#00B746"/>
<path d="M615.777 211.19H627.681V158.942V211.19H639.585V227.035H627.681V227.249V227.035H615.777V210.492" stroke="#333333"/>
<path d="M652.528 208.62H664.432V205.622V208.62H676.336V241.81H664.432V300.91V241.81H652.528V207.923" fill="#EF403C"/>
<path d="M652.528 208.62H664.432V205.622V208.62H676.336V241.81H664.432V300.91V241.81H652.528V207.923" stroke="#333333"/>
<path d="M688.094 243.523H699.998V188.064V243.523H711.902V263.223H699.998V277.57V263.223H688.094V242.826" fill="#EF403C"/>
<path d="M688.094 243.523H699.998V188.064V243.523H711.902V263.223H699.998V277.57V263.223H688.094V242.826" stroke="#333333"/>
<path d="M724.846 255.943H736.75V249.09V255.943H748.654V321.252H736.75V396.84V321.252H724.846V255.245" fill="#EF403C"/>
<path d="M724.846 255.943H736.75V249.09V255.943H748.654V321.252H736.75V396.84V321.252H724.846V255.245" stroke="#333333"/>
<path d="M761.597 264.722H773.501V177.571V264.722H785.405V319.325H773.501V354.014V319.325H761.597V264.024" fill="#00B746"/>
<path d="M761.597 264.722H773.501V177.571V264.722H785.405V319.325H773.501V354.014V319.325H761.597V264.024" stroke="#333333"/>
<path d="M797.163 143.953H809.067V141.812V143.953H820.972V260.225H809.067V272.216V260.225H797.163V143.256" fill="#00B746"/>
<path d="M797.163 143.953H809.067V141.812V143.953H820.972V260.225H809.067V272.216V260.225H797.163V143.256" stroke="#333333"/>
<path d="M833.915 146.094H845.819V134.745V146.094H857.723V170.291H845.819V213.973V170.291H833.915V145.397" fill="#EF403C"/>
<path d="M833.915 146.094H845.819V134.745V146.094H857.723V170.291H845.819V213.973V170.291H833.915V145.397" stroke="#333333"/>
<path d="M869.481 142.882H881.385V119.114V142.882H893.289V171.361H881.385V180.355V171.361H869.481V142.185" fill="#00B746"/>
<path d="M869.481 142.882H881.385V119.114V142.882H893.289V171.361H881.385V180.355V171.361H869.481V142.185" stroke="#333333"/>
<path d="M33.4737 67.4576V68.3775H33.2744C32.4307 68.3932 31.7588 68.6432 31.2588 69.1275C30.7588 69.6119 30.4698 70.2936 30.3916 71.1725C30.8408 70.6568 31.4541 70.399 32.2315 70.399C32.9737 70.399 33.5655 70.6608 34.0069 71.1842C34.4522 71.7076 34.6748 72.3834 34.6748 73.2115C34.6748 74.0904 34.4346 74.7936 33.9541 75.3209C33.4776 75.8483 32.8369 76.1119 32.0323 76.1119C31.2158 76.1119 30.5537 75.7994 30.0459 75.1744C29.5381 74.5455 29.2842 73.7369 29.2842 72.7486V72.3326C29.2842 70.7623 29.6182 69.5631 30.2862 68.735C30.958 67.9029 31.9561 67.4772 33.2803 67.4576H33.4737ZM32.0498 71.3014C31.6787 71.3014 31.3369 71.4127 31.0244 71.6354C30.7119 71.858 30.4951 72.1373 30.3741 72.4733V72.8717C30.3741 73.5748 30.5323 74.1412 30.8487 74.5709C31.1651 75.0006 31.5596 75.2154 32.0323 75.2154C32.5205 75.2154 32.9033 75.0358 33.1807 74.6764C33.4619 74.317 33.6026 73.8463 33.6026 73.2643C33.6026 72.6783 33.46 72.2057 33.1748 71.8463C32.8936 71.483 32.5186 71.3014 32.0498 71.3014ZM40.2119 67.4576V68.3775H40.0127C39.169 68.3932 38.4971 68.6432 37.9971 69.1275C37.4971 69.6119 37.208 70.2936 37.1299 71.1725C37.5791 70.6568 38.1924 70.399 38.9698 70.399C39.7119 70.399 40.3037 70.6608 40.7451 71.1842C41.1905 71.7076 41.4131 72.3834 41.4131 73.2115C41.4131 74.0904 41.1729 74.7936 40.6924 75.3209C40.2158 75.8483 39.5752 76.1119 38.7705 76.1119C37.9541 76.1119 37.292 75.7994 36.7842 75.1744C36.2764 74.5455 36.0225 73.7369 36.0225 72.7486V72.3326C36.0225 70.7623 36.3565 69.5631 37.0244 68.735C37.6963 67.9029 38.6944 67.4772 40.0186 67.4576H40.2119ZM38.7881 71.3014C38.417 71.3014 38.0752 71.4127 37.7627 71.6354C37.4502 71.858 37.2334 72.1373 37.1123 72.4733V72.8717C37.1123 73.5748 37.2705 74.1412 37.5869 74.5709C37.9033 75.0006 38.2979 75.2154 38.7705 75.2154C39.2588 75.2154 39.6416 75.0358 39.919 74.6764C40.2002 74.317 40.3408 73.8463 40.3408 73.2643C40.3408 72.6783 40.1983 72.2057 39.9131 71.8463C39.6319 71.483 39.2569 71.3014 38.7881 71.3014ZM42.8311 75.4264C42.8311 75.2389 42.8858 75.0826 42.9951 74.9576C43.1084 74.8326 43.2764 74.7701 43.4991 74.7701C43.7217 74.7701 43.8897 74.8326 44.003 74.9576C44.1201 75.0826 44.1787 75.2389 44.1787 75.4264C44.1787 75.6061 44.1201 75.7565 44.003 75.8775C43.8897 75.9986 43.7217 76.0592 43.4991 76.0592C43.2764 76.0592 43.1084 75.9986 42.9951 75.8775C42.8858 75.7565 42.8311 75.6061 42.8311 75.4264ZM51.21 72.3561C51.21 73.6256 50.9932 74.569 50.5596 75.1861C50.126 75.8033 49.4483 76.1119 48.5264 76.1119C47.6162 76.1119 46.9424 75.8111 46.5049 75.2096C46.0674 74.6041 45.8408 73.7018 45.8252 72.5025V71.0553C45.8252 69.8014 46.042 68.8697 46.4756 68.2604C46.9092 67.651 47.5889 67.3463 48.5147 67.3463C49.4326 67.3463 50.1084 67.6412 50.542 68.2311C50.9756 68.817 51.1983 69.7233 51.21 70.9498V72.3561ZM50.126 70.8736C50.126 69.9557 49.9971 69.2877 49.7393 68.8697C49.4815 68.4479 49.0733 68.2369 48.5147 68.2369C47.96 68.2369 47.5557 68.4459 47.3018 68.8639C47.0479 69.2818 46.917 69.9244 46.9092 70.7916V72.526C46.9092 73.4479 47.042 74.1295 47.3076 74.5709C47.5772 75.0084 47.9834 75.2272 48.5264 75.2272C49.0616 75.2272 49.458 75.0201 49.7158 74.6061C49.9776 74.192 50.1143 73.5397 50.126 72.649V70.8736ZM57.9483 72.3561C57.9483 73.6256 57.7315 74.569 57.2979 75.1861C56.8643 75.8033 56.1866 76.1119 55.2647 76.1119C54.3545 76.1119 53.6807 75.8111 53.2432 75.2096C52.8057 74.6041 52.5791 73.7018 52.5635 72.5025V71.0553C52.5635 69.8014 52.7803 68.8697 53.2139 68.2604C53.6475 67.651 54.3272 67.3463 55.253 67.3463C56.1709 67.3463 56.8467 67.6412 57.2803 68.2311C57.7139 68.817 57.9366 69.7233 57.9483 70.9498V72.3561ZM56.8643 70.8736C56.8643 69.9557 56.7354 69.2877 56.4776 68.8697C56.2198 68.4479 55.8116 68.2369 55.253 68.2369C54.6983 68.2369 54.294 68.4459 54.0401 68.8639C53.7862 69.2818 53.6553 69.9244 53.6475 70.7916V72.526C53.6475 73.4479 53.7803 74.1295 54.0459 74.5709C54.3155 75.0084 54.7217 75.2272 55.2647 75.2272C55.7998 75.2272 56.1963 75.0201 56.4541 74.6061C56.7158 74.192 56.8526 73.5397 56.8643 72.649V70.8736Z" fill="#373D3F"/>
<path d="M33.4737 131.836V132.756H33.2744C32.4307 132.771 31.7588 133.021 31.2588 133.506C30.7588 133.99 30.4698 134.672 30.3916 135.551C30.8408 135.035 31.4541 134.777 32.2315 134.777C32.9737 134.777 33.5655 135.039 34.0069 135.562C34.4522 136.086 34.6748 136.762 34.6748 137.59C34.6748 138.469 34.4346 139.172 33.9541 139.699C33.4776 140.227 32.8369 140.49 32.0323 140.49C31.2158 140.49 30.5537 140.178 30.0459 139.553C29.5381 138.924 29.2842 138.115 29.2842 137.127V136.711C29.2842 135.141 29.6182 133.941 30.2862 133.113C30.958 132.281 31.9561 131.855 33.2803 131.836H33.4737ZM32.0498 135.68C31.6787 135.68 31.3369 135.791 31.0244 136.014C30.7119 136.236 30.4951 136.516 30.3741 136.852V137.25C30.3741 137.953 30.5323 138.52 30.8487 138.949C31.1651 139.379 31.5596 139.594 32.0323 139.594C32.5205 139.594 32.9033 139.414 33.1807 139.055C33.4619 138.695 33.6026 138.225 33.6026 137.643C33.6026 137.057 33.46 136.584 33.1748 136.225C32.8936 135.861 32.5186 135.68 32.0498 135.68ZM37.5342 135.58H38.3487C38.8604 135.572 39.2627 135.437 39.5557 135.176C39.8487 134.914 39.9951 134.561 39.9951 134.115C39.9951 133.115 39.4971 132.615 38.501 132.615C38.0323 132.615 37.6573 132.75 37.376 133.02C37.0987 133.285 36.96 133.639 36.96 134.08H35.876C35.876 133.404 36.1221 132.844 36.6143 132.398C37.1104 131.949 37.7393 131.725 38.501 131.725C39.3057 131.725 39.9366 131.937 40.3936 132.363C40.8506 132.789 41.0791 133.381 41.0791 134.139C41.0791 134.51 40.958 134.869 40.7158 135.217C40.4776 135.564 40.1514 135.824 39.7373 135.996C40.2061 136.145 40.5674 136.391 40.8213 136.734C41.0791 137.078 41.208 137.498 41.208 137.994C41.208 138.76 40.958 139.367 40.458 139.816C39.958 140.266 39.3076 140.49 38.5069 140.49C37.7061 140.49 37.0537 140.273 36.5498 139.84C36.0498 139.406 35.7998 138.834 35.7998 138.123H36.8897C36.8897 138.572 37.0362 138.932 37.3291 139.201C37.6221 139.471 38.0147 139.605 38.5069 139.605C39.0303 139.605 39.4307 139.469 39.708 139.195C39.9854 138.922 40.1241 138.529 40.1241 138.018C40.1241 137.521 39.9717 137.141 39.667 136.875C39.3623 136.609 38.9229 136.473 38.3487 136.465H37.5342V135.58ZM42.8311 139.805C42.8311 139.617 42.8858 139.461 42.9951 139.336C43.1084 139.211 43.2764 139.148 43.4991 139.148C43.7217 139.148 43.8897 139.211 44.003 139.336C44.1201 139.461 44.1787 139.617 44.1787 139.805C44.1787 139.984 44.1201 140.135 44.003 140.256C43.8897 140.377 43.7217 140.437 43.4991 140.437C43.2764 140.437 43.1084 140.377 42.9951 140.256C42.8858 140.135 42.8311 139.984 42.8311 139.805ZM51.21 136.734C51.21 138.004 50.9932 138.947 50.5596 139.564C50.126 140.182 49.4483 140.49 48.5264 140.49C47.6162 140.49 46.9424 140.189 46.5049 139.588C46.0674 138.982 45.8408 138.08 45.8252 136.881V135.434C45.8252 134.18 46.042 133.248 46.4756 132.639C46.9092 132.029 47.5889 131.725 48.5147 131.725C49.4326 131.725 50.1084 132.02 50.542 132.609C50.9756 133.195 51.1983 134.102 51.21 135.328V136.734ZM50.126 135.252C50.126 134.334 49.9971 133.666 49.7393 133.248C49.4815 132.826 49.0733 132.615 48.5147 132.615C47.96 132.615 47.5557 132.824 47.3018 133.242C47.0479 133.66 46.917 134.303 46.9092 135.17V136.904C46.9092 137.826 47.042 138.508 47.3076 138.949C47.5772 139.387 47.9834 139.605 48.5264 139.605C49.0616 139.605 49.458 139.398 49.7158 138.984C49.9776 138.57 50.1143 137.918 50.126 137.027V135.252ZM57.9483 136.734C57.9483 138.004 57.7315 138.947 57.2979 139.564C56.8643 140.182 56.1866 140.49 55.2647 140.49C54.3545 140.49 53.6807 140.189 53.2432 139.588C52.8057 138.982 52.5791 138.08 52.5635 136.881V135.434C52.5635 134.18 52.7803 133.248 53.2139 132.639C53.6475 132.029 54.3272 131.725 55.253 131.725C56.1709 131.725 56.8467 132.02 57.2803 132.609C57.7139 133.195 57.9366 134.102 57.9483 135.328V136.734ZM56.8643 135.252C56.8643 134.334 56.7354 133.666 56.4776 133.248C56.2198 132.826 55.8116 132.615 55.253 132.615C54.6983 132.615 54.294 132.824 54.0401 133.242C53.7862 133.66 53.6553 134.303 53.6475 135.17V136.904C53.6475 137.826 53.7803 138.508 54.0459 138.949C54.3155 139.387 54.7217 139.605 55.2647 139.605C55.7998 139.605 56.1963 139.398 56.4541 138.984C56.7158 138.57 56.8526 137.918 56.8643 137.027V135.252Z" fill="#373D3F"/>
<path d="M33.4737 196.214V197.134H33.2744C32.4307 197.15 31.7588 197.4 31.2588 197.884C30.7588 198.368 30.4698 199.05 30.3916 199.929C30.8408 199.413 31.4541 199.156 32.2315 199.156C32.9737 199.156 33.5655 199.417 34.0069 199.941C34.4522 200.464 34.6748 201.14 34.6748 201.968C34.6748 202.847 34.4346 203.55 33.9541 204.077C33.4776 204.605 32.8369 204.868 32.0323 204.868C31.2158 204.868 30.5537 204.556 30.0459 203.931C29.5381 203.302 29.2842 202.493 29.2842 201.505V201.089C29.2842 199.519 29.6182 198.32 30.2862 197.492C30.958 196.659 31.9561 196.234 33.2803 196.214H33.4737ZM32.0498 200.058C31.6787 200.058 31.3369 200.169 31.0244 200.392C30.7119 200.615 30.4951 200.894 30.3741 201.23V201.628C30.3741 202.331 30.5323 202.898 30.8487 203.327C31.1651 203.757 31.5596 203.972 32.0323 203.972C32.5205 203.972 32.9033 203.792 33.1807 203.433C33.4619 203.074 33.6026 202.603 33.6026 202.021C33.6026 201.435 33.46 200.962 33.1748 200.603C32.8936 200.24 32.5186 200.058 32.0498 200.058ZM41.3076 201.113C41.3076 202.382 41.0908 203.325 40.6573 203.943C40.2237 204.56 39.5459 204.868 38.6241 204.868C37.7139 204.868 37.0401 204.568 36.6026 203.966C36.1651 203.361 35.9385 202.458 35.9229 201.259V199.812C35.9229 198.558 36.1397 197.626 36.5733 197.017C37.0069 196.408 37.6866 196.103 38.6123 196.103C39.5303 196.103 40.2061 196.398 40.6397 196.988C41.0733 197.574 41.2959 198.48 41.3076 199.706V201.113ZM40.2237 199.63C40.2237 198.712 40.0948 198.044 39.8369 197.626C39.5791 197.204 39.1709 196.993 38.6123 196.993C38.0576 196.993 37.6533 197.202 37.3994 197.62C37.1455 198.038 37.0147 198.681 37.0069 199.548V201.283C37.0069 202.204 37.1397 202.886 37.4053 203.327C37.6748 203.765 38.0811 203.984 38.6241 203.984C39.1592 203.984 39.5557 203.777 39.8135 203.363C40.0752 202.949 40.2119 202.296 40.2237 201.406V199.63ZM42.8311 204.183C42.8311 203.995 42.8858 203.839 42.9951 203.714C43.1084 203.589 43.2764 203.527 43.4991 203.527C43.7217 203.527 43.8897 203.589 44.003 203.714C44.1201 203.839 44.1787 203.995 44.1787 204.183C44.1787 204.363 44.1201 204.513 44.003 204.634C43.8897 204.755 43.7217 204.816 43.4991 204.816C43.2764 204.816 43.1084 204.755 42.9951 204.634C42.8858 204.513 42.8311 204.363 42.8311 204.183ZM51.21 201.113C51.21 202.382 50.9932 203.325 50.5596 203.943C50.126 204.56 49.4483 204.868 48.5264 204.868C47.6162 204.868 46.9424 204.568 46.5049 203.966C46.0674 203.361 45.8408 202.458 45.8252 201.259V199.812C45.8252 198.558 46.042 197.626 46.4756 197.017C46.9092 196.408 47.5889 196.103 48.5147 196.103C49.4326 196.103 50.1084 196.398 50.542 196.988C50.9756 197.574 51.1983 198.48 51.21 199.706V201.113ZM50.126 199.63C50.126 198.712 49.9971 198.044 49.7393 197.626C49.4815 197.204 49.0733 196.993 48.5147 196.993C47.96 196.993 47.5557 197.202 47.3018 197.62C47.0479 198.038 46.917 198.681 46.9092 199.548V201.283C46.9092 202.204 47.042 202.886 47.3076 203.327C47.5772 203.765 47.9834 203.984 48.5264 203.984C49.0616 203.984 49.458 203.777 49.7158 203.363C49.9776 202.949 50.1143 202.296 50.126 201.406V199.63ZM57.9483 201.113C57.9483 202.382 57.7315 203.325 57.2979 203.943C56.8643 204.56 56.1866 204.868 55.2647 204.868C54.3545 204.868 53.6807 204.568 53.2432 203.966C52.8057 203.361 52.5791 202.458 52.5635 201.259V199.812C52.5635 198.558 52.7803 197.626 53.2139 197.017C53.6475 196.408 54.3272 196.103 55.253 196.103C56.1709 196.103 56.8467 196.398 57.2803 196.988C57.7139 197.574 57.9366 198.48 57.9483 199.706V201.113ZM56.8643 199.63C56.8643 198.712 56.7354 198.044 56.4776 197.626C56.2198 197.204 55.8116 196.993 55.253 196.993C54.6983 196.993 54.294 197.202 54.0401 197.62C53.7862 198.038 53.6553 198.681 53.6475 199.548V201.283C53.6475 202.204 53.7803 202.886 54.0459 203.327C54.3155 203.765 54.7217 203.984 55.2647 203.984C55.7998 203.984 56.1963 203.777 56.4541 203.363C56.7158 202.949 56.8526 202.296 56.8643 201.406V199.63Z" fill="#373D3F"/>
<path d="M29.7178 264.852L30.1514 260.598H34.5225V261.6H31.0713L30.8135 263.926C31.2315 263.68 31.7061 263.557 32.2373 263.557C33.0147 263.557 33.6319 263.815 34.0889 264.331C34.5459 264.842 34.7744 265.536 34.7744 266.411C34.7744 267.29 34.5362 267.983 34.0596 268.491C33.5869 268.995 32.9248 269.247 32.0733 269.247C31.3194 269.247 30.7041 269.038 30.2276 268.62C29.751 268.202 29.4795 267.624 29.4131 266.885H30.4385C30.5049 267.374 30.6787 267.743 30.96 267.993C31.2412 268.239 31.6123 268.362 32.0733 268.362C32.5772 268.362 32.9717 268.19 33.2569 267.846C33.5459 267.503 33.6905 267.028 33.6905 266.423C33.6905 265.852 33.5342 265.395 33.2217 265.051C32.9131 264.704 32.501 264.53 31.9854 264.53C31.5127 264.53 31.1416 264.633 30.8721 264.84L30.585 265.075L29.7178 264.852ZM41.4658 261.208L37.9326 269.13H36.7959L40.3174 261.489H35.7002V260.598H41.4658V261.208ZM42.8311 268.561C42.8311 268.374 42.8858 268.217 42.9951 268.092C43.1084 267.967 43.2764 267.905 43.4991 267.905C43.7217 267.905 43.8897 267.967 44.003 268.092C44.1201 268.217 44.1787 268.374 44.1787 268.561C44.1787 268.741 44.1201 268.891 44.003 269.012C43.8897 269.133 43.7217 269.194 43.4991 269.194C43.2764 269.194 43.1084 269.133 42.9951 269.012C42.8858 268.891 42.8311 268.741 42.8311 268.561ZM51.21 265.491C51.21 266.76 50.9932 267.704 50.5596 268.321C50.126 268.938 49.4483 269.247 48.5264 269.247C47.6162 269.247 46.9424 268.946 46.5049 268.344C46.0674 267.739 45.8408 266.837 45.8252 265.637V264.19C45.8252 262.936 46.042 262.005 46.4756 261.395C46.9092 260.786 47.5889 260.481 48.5147 260.481C49.4326 260.481 50.1084 260.776 50.542 261.366C50.9756 261.952 51.1983 262.858 51.21 264.085V265.491ZM50.126 264.008C50.126 263.09 49.9971 262.423 49.7393 262.005C49.4815 261.583 49.0733 261.372 48.5147 261.372C47.96 261.372 47.5557 261.581 47.3018 261.999C47.0479 262.417 46.917 263.059 46.9092 263.926V265.661C46.9092 266.583 47.042 267.264 47.3076 267.706C47.5772 268.143 47.9834 268.362 48.5264 268.362C49.0616 268.362 49.458 268.155 49.7158 267.741C49.9776 267.327 50.1143 266.674 50.126 265.784V264.008ZM57.9483 265.491C57.9483 266.76 57.7315 267.704 57.2979 268.321C56.8643 268.938 56.1866 269.247 55.2647 269.247C54.3545 269.247 53.6807 268.946 53.2432 268.344C52.8057 267.739 52.5791 266.837 52.5635 265.637V264.19C52.5635 262.936 52.7803 262.005 53.2139 261.395C53.6475 260.786 54.3272 260.481 55.253 260.481C56.1709 260.481 56.8467 260.776 57.2803 261.366C57.7139 261.952 57.9366 262.858 57.9483 264.085V265.491ZM56.8643 264.008C56.8643 263.09 56.7354 262.423 56.4776 262.005C56.2198 261.583 55.8116 261.372 55.253 261.372C54.6983 261.372 54.294 261.581 54.0401 261.999C53.7862 262.417 53.6553 263.059 53.6475 263.926V265.661C53.6475 266.583 53.7803 267.264 54.0459 267.706C54.3155 268.143 54.7217 268.362 55.2647 268.362C55.7998 268.362 56.1963 268.155 56.4541 267.741C56.7158 267.327 56.8526 266.674 56.8643 265.784V264.008Z" fill="#373D3F"/>
<path d="M29.7178 329.23L30.1514 324.977H34.5225V325.979H31.0713L30.8135 328.305C31.2315 328.059 31.7061 327.936 32.2373 327.936C33.0147 327.936 33.6319 328.193 34.0889 328.709C34.5459 329.221 34.7744 329.914 34.7744 330.789C34.7744 331.668 34.5362 332.361 34.0596 332.869C33.5869 333.373 32.9248 333.625 32.0733 333.625C31.3194 333.625 30.7041 333.416 30.2276 332.998C29.751 332.58 29.4795 332.002 29.4131 331.264H30.4385C30.5049 331.752 30.6787 332.121 30.96 332.371C31.2412 332.617 31.6123 332.74 32.0733 332.74C32.5772 332.74 32.9717 332.568 33.2569 332.225C33.5459 331.881 33.6905 331.406 33.6905 330.801C33.6905 330.23 33.5342 329.773 33.2217 329.43C32.9131 329.082 32.501 328.908 31.9854 328.908C31.5127 328.908 31.1416 329.012 30.8721 329.219L30.585 329.453L29.7178 329.23ZM40.5342 330.643H41.7178V331.527H40.5342V333.508H39.4444V331.527H35.5596V330.889L39.3799 324.977H40.5342V330.643ZM36.7901 330.643H39.4444V326.459L39.3155 326.693L36.7901 330.643ZM42.8311 332.939C42.8311 332.752 42.8858 332.596 42.9951 332.471C43.1084 332.346 43.2764 332.283 43.4991 332.283C43.7217 332.283 43.8897 332.346 44.003 332.471C44.1201 332.596 44.1787 332.752 44.1787 332.939C44.1787 333.119 44.1201 333.27 44.003 333.391C43.8897 333.512 43.7217 333.572 43.4991 333.572C43.2764 333.572 43.1084 333.512 42.9951 333.391C42.8858 333.27 42.8311 333.119 42.8311 332.939ZM51.21 329.869C51.21 331.139 50.9932 332.082 50.5596 332.699C50.126 333.316 49.4483 333.625 48.5264 333.625C47.6162 333.625 46.9424 333.324 46.5049 332.723C46.0674 332.117 45.8408 331.215 45.8252 330.016V328.568C45.8252 327.314 46.042 326.383 46.4756 325.773C46.9092 325.164 47.5889 324.859 48.5147 324.859C49.4326 324.859 50.1084 325.154 50.542 325.744C50.9756 326.33 51.1983 327.236 51.21 328.463V329.869ZM50.126 328.387C50.126 327.469 49.9971 326.801 49.7393 326.383C49.4815 325.961 49.0733 325.75 48.5147 325.75C47.96 325.75 47.5557 325.959 47.3018 326.377C47.0479 326.795 46.917 327.438 46.9092 328.305V330.039C46.9092 330.961 47.042 331.643 47.3076 332.084C47.5772 332.521 47.9834 332.74 48.5264 332.74C49.0616 332.74 49.458 332.533 49.7158 332.119C49.9776 331.705 50.1143 331.053 50.126 330.162V328.387ZM57.9483 329.869C57.9483 331.139 57.7315 332.082 57.2979 332.699C56.8643 333.316 56.1866 333.625 55.2647 333.625C54.3545 333.625 53.6807 333.324 53.2432 332.723C52.8057 332.117 52.5791 331.215 52.5635 330.016V328.568C52.5635 327.314 52.7803 326.383 53.2139 325.773C53.6475 325.164 54.3272 324.859 55.253 324.859C56.1709 324.859 56.8467 325.154 57.2803 325.744C57.7139 326.33 57.9366 327.236 57.9483 328.463V329.869ZM56.8643 328.387C56.8643 327.469 56.7354 326.801 56.4776 326.383C56.2198 325.961 55.8116 325.75 55.253 325.75C54.6983 325.75 54.294 325.959 54.0401 326.377C53.7862 326.795 53.6553 327.438 53.6475 328.305V330.039C53.6475 330.961 53.7803 331.643 54.0459 332.084C54.3155 332.521 54.7217 332.74 55.2647 332.74C55.7998 332.74 56.1963 332.533 56.4541 332.119C56.7158 331.705 56.8526 331.053 56.8643 330.162V328.387Z" fill="#373D3F"/>
<path d="M29.7178 393.609L30.1514 389.355H34.5225V390.357H31.0713L30.8135 392.683C31.2315 392.437 31.7061 392.314 32.2373 392.314C33.0147 392.314 33.6319 392.572 34.0889 393.087C34.5459 393.599 34.7744 394.292 34.7744 395.167C34.7744 396.046 34.5362 396.74 34.0596 397.247C33.5869 397.751 32.9248 398.003 32.0733 398.003C31.3194 398.003 30.7041 397.794 30.2276 397.376C29.751 396.958 29.4795 396.38 29.4131 395.642H30.4385C30.5049 396.13 30.6787 396.499 30.96 396.749C31.2412 396.995 31.6123 397.119 32.0733 397.119C32.5772 397.119 32.9717 396.947 33.2569 396.603C33.5459 396.259 33.6905 395.785 33.6905 395.179C33.6905 394.609 33.5342 394.152 33.2217 393.808C32.9131 393.46 32.501 393.286 31.9854 393.286C31.5127 393.286 31.1416 393.39 30.8721 393.597L30.585 393.831L29.7178 393.609ZM39.5205 397.886H38.4307V390.661L36.2451 391.464V390.48L39.3506 389.314H39.5205V397.886ZM42.8311 397.318C42.8311 397.13 42.8858 396.974 42.9951 396.849C43.1084 396.724 43.2764 396.661 43.4991 396.661C43.7217 396.661 43.8897 396.724 44.003 396.849C44.1201 396.974 44.1787 397.13 44.1787 397.318C44.1787 397.497 44.1201 397.648 44.003 397.769C43.8897 397.89 43.7217 397.951 43.4991 397.951C43.2764 397.951 43.1084 397.89 42.9951 397.769C42.8858 397.648 42.8311 397.497 42.8311 397.318ZM51.21 394.247C51.21 395.517 50.9932 396.46 50.5596 397.078C50.126 397.695 49.4483 398.003 48.5264 398.003C47.6162 398.003 46.9424 397.703 46.5049 397.101C46.0674 396.495 45.8408 395.593 45.8252 394.394V392.947C45.8252 391.693 46.042 390.761 46.4756 390.152C46.9092 389.542 47.5889 389.238 48.5147 389.238C49.4326 389.238 50.1084 389.533 50.542 390.122C50.9756 390.708 51.1983 391.615 51.21 392.841V394.247ZM50.126 392.765C50.126 391.847 49.9971 391.179 49.7393 390.761C49.4815 390.339 49.0733 390.128 48.5147 390.128C47.96 390.128 47.5557 390.337 47.3018 390.755C47.0479 391.173 46.917 391.816 46.9092 392.683V394.417C46.9092 395.339 47.042 396.021 47.3076 396.462C47.5772 396.9 47.9834 397.119 48.5264 397.119C49.0616 397.119 49.458 396.911 49.7158 396.497C49.9776 396.083 50.1143 395.431 50.126 394.54V392.765ZM57.9483 394.247C57.9483 395.517 57.7315 396.46 57.2979 397.078C56.8643 397.695 56.1866 398.003 55.2647 398.003C54.3545 398.003 53.6807 397.703 53.2432 397.101C52.8057 396.495 52.5791 395.593 52.5635 394.394V392.947C52.5635 391.693 52.7803 390.761 53.2139 390.152C53.6475 389.542 54.3272 389.238 55.253 389.238C56.1709 389.238 56.8467 389.533 57.2803 390.122C57.7139 390.708 57.9366 391.615 57.9483 392.841V394.247ZM56.8643 392.765C56.8643 391.847 56.7354 391.179 56.4776 390.761C56.2198 390.339 55.8116 390.128 55.253 390.128C54.6983 390.128 54.294 390.337 54.0401 390.755C53.7862 391.173 53.6553 391.816 53.6475 392.683V394.417C53.6475 395.339 53.7803 396.021 54.0459 396.462C54.3155 396.9 54.7217 397.119 55.2647 397.119C55.7998 397.119 56.1963 396.911 56.4541 396.497C56.7158 396.083 56.8526 395.431 56.8643 394.54V392.765Z" fill="#373D3F"/>
<path d="M33.7959 459.399H34.9795V460.284H33.7959V462.264H32.7061V460.284H28.8213V459.645L32.6416 453.733H33.7959V459.399ZM30.0518 459.399H32.7061V455.216L32.5772 455.45L30.0518 459.399ZM41.1319 455.96C41.1319 456.385 41.0186 456.764 40.792 457.096C40.5694 457.428 40.2666 457.688 39.8838 457.876C40.3291 458.067 40.6807 458.346 40.9385 458.714C41.2002 459.081 41.3311 459.497 41.3311 459.962C41.3311 460.7 41.0811 461.288 40.5811 461.725C40.085 462.163 39.4307 462.382 38.6182 462.382C37.7979 462.382 37.1397 462.163 36.6436 461.725C36.1514 461.284 35.9053 460.696 35.9053 459.962C35.9053 459.501 36.0303 459.085 36.2803 458.714C36.5342 458.342 36.8838 458.061 37.3291 457.87C36.9502 457.682 36.6514 457.423 36.4326 457.091C36.2139 456.758 36.1045 456.382 36.1045 455.96C36.1045 455.241 36.335 454.671 36.7959 454.249C37.2569 453.827 37.8643 453.616 38.6182 453.616C39.3682 453.616 39.9737 453.827 40.4346 454.249C40.8994 454.671 41.1319 455.241 41.1319 455.96ZM40.2471 459.938C40.2471 459.462 40.0948 459.073 39.7901 458.772C39.4893 458.471 39.0948 458.321 38.6065 458.321C38.1182 458.321 37.7256 458.469 37.4287 458.766C37.1358 459.063 36.9893 459.454 36.9893 459.938C36.9893 460.423 37.1319 460.803 37.417 461.081C37.7061 461.358 38.1065 461.497 38.6182 461.497C39.126 461.497 39.5244 461.358 39.8135 461.081C40.1026 460.799 40.2471 460.419 40.2471 459.938ZM38.6182 454.507C38.1924 454.507 37.8467 454.639 37.5811 454.905C37.3194 455.167 37.1885 455.524 37.1885 455.977C37.1885 456.411 37.3174 456.762 37.5752 457.032C37.8369 457.298 38.1846 457.43 38.6182 457.43C39.0518 457.43 39.3975 457.298 39.6553 457.032C39.917 456.762 40.0479 456.411 40.0479 455.977C40.0479 455.544 39.9131 455.19 39.6436 454.917C39.3741 454.643 39.0323 454.507 38.6182 454.507ZM42.8311 461.696C42.8311 461.508 42.8858 461.352 42.9951 461.227C43.1084 461.102 43.2764 461.04 43.4991 461.04C43.7217 461.04 43.8897 461.102 44.003 461.227C44.1201 461.352 44.1787 461.508 44.1787 461.696C44.1787 461.876 44.1201 462.026 44.003 462.147C43.8897 462.268 43.7217 462.329 43.4991 462.329C43.2764 462.329 43.1084 462.268 42.9951 462.147C42.8858 462.026 42.8311 461.876 42.8311 461.696ZM51.21 458.626C51.21 459.895 50.9932 460.839 50.5596 461.456C50.126 462.073 49.4483 462.382 48.5264 462.382C47.6162 462.382 46.9424 462.081 46.5049 461.479C46.0674 460.874 45.8408 459.971 45.8252 458.772V457.325C45.8252 456.071 46.042 455.139 46.4756 454.53C46.9092 453.921 47.5889 453.616 48.5147 453.616C49.4326 453.616 50.1084 453.911 50.542 454.501C50.9756 455.087 51.1983 455.993 51.21 457.219V458.626ZM50.126 457.143C50.126 456.225 49.9971 455.557 49.7393 455.139C49.4815 454.717 49.0733 454.507 48.5147 454.507C47.96 454.507 47.5557 454.716 47.3018 455.133C47.0479 455.551 46.917 456.194 46.9092 457.061V458.796C46.9092 459.717 47.042 460.399 47.3076 460.841C47.5772 461.278 47.9834 461.497 48.5264 461.497C49.0616 461.497 49.458 461.29 49.7158 460.876C49.9776 460.462 50.1143 459.809 50.126 458.919V457.143ZM57.9483 458.626C57.9483 459.895 57.7315 460.839 57.2979 461.456C56.8643 462.073 56.1866 462.382 55.2647 462.382C54.3545 462.382 53.6807 462.081 53.2432 461.479C52.8057 460.874 52.5791 459.971 52.5635 458.772V457.325C52.5635 456.071 52.7803 455.139 53.2139 454.53C53.6475 453.921 54.3272 453.616 55.253 453.616C56.1709 453.616 56.8467 453.911 57.2803 454.501C57.7139 455.087 57.9366 455.993 57.9483 457.219V458.626ZM56.8643 457.143C56.8643 456.225 56.7354 455.557 56.4776 455.139C56.2198 454.717 55.8116 454.507 55.253 454.507C54.6983 454.507 54.294 454.716 54.0401 455.133C53.7862 455.551 53.6553 456.194 53.6475 457.061V458.796C53.6475 459.717 53.7803 460.399 54.0459 460.841C54.3155 461.278 54.7217 461.497 55.2647 461.497C55.7998 461.497 56.1963 461.29 56.4541 460.876C56.7158 460.462 56.8526 459.809 56.8643 458.919V457.143Z" fill="#373D3F"/>
</g>
<defs>
<clipPath id="clip0">
<rect width="907" height="530" fill="white"/>
</clipPath>
</defs>
</svg>
